1 10 20
100 200 125
201 210 89
900 1000 174
232092 945937 525
57582 406888 443
5 5 6
300 320 131
1 100 119
1000 3000 217
23467 908764 525
500 700 145
13 19 21
24 267 128
345678 900000 525
45 90 116
56 700 145
1 1 1
986 3456 217
12 34 112
567 779 171
3478 5000 238
12345 45678 324
9874 10000 242
533 7890 262
2 4 8
789 4578 238
94 120 119
1000 7001 262
187603 576125 470
716756 846521 525
78 917597 525
351960 714369 509
56 89 116
12 20 21
456 908 179
567 901 179
234 448 144
1278 3458 217
334 1000 179
906 2345 183
68740 875835 525
221267 498916 449
56 923 179
12 67 113
10 8901 262
23 9987 262
4 90983 351
786 1005 179
567 1123 179
234484 908723 525
111 444 144
23 907 179
467 1000 179
8 433 144
217421 511519 449
179738 798731 509
34 567 144
23 900 179
2000 3000 217
78367 157529 383
511500 959889 525
67 1890 182
777 4568 238
234 908 179
6784 10000 260
52638 595260 470
604136 762698 509
34 7865 262
23 90 116
55 89 116
43 900 179
329626 367976 441
897 66677 340
35 7554 262
23 843 171
2345 8909 262
809 4666 238
234 9083 262
349711 642469 509
32 56783 340
455 7890 262
324 753 171
200 789 171
756 1000 179
43088 322670 443
430 9987 262
123 4789 238
457 7865 262
23490 89023 351
5674 90843 351
23 90 116
2 77 116
3 900 179
402388 873342 525
171844 721300 509
876 1786 182
5 672 145
300 789 171
34657 90876 351
34 8765 262
345 789 171
347 1200 182
456 908 179
467 17893 279
